{"items": [{"external_urls": {"spotify": "https://open.spotify.com/artist/06HL4z0CvFAxyc27GXpf02"}, "followers": {"href": null, "total": 48915764}, "genres": ["pop"], "href": "https://api.spotify.com/v1/artists/06HL4z0CvFAxyc27GXpf02", "id": "06HL4z0CvFAxyc27GXpf02", "images": [{"height": 640, "url": "https://i.scdn.co/image/ab6761610000e5eb9e3acf1eaf3b8846e836f441", "width": 640}, {"height": 320, "url": "https://i.scdn.co/image/ab676161000051749e3acf1eaf3b8846e836f441", "width": 320}, {"height": 160, "url": "https://i.scdn.co/image/ab6761610000f1789e3acf1eaf3b8846e836f441", "width": 160}], "name": "Taylor Swift", "popularity": 98, "type": "artist", "uri": "spotify:artist:06HL4z0CvFAxyc27GXpf02"}, {"external_urls": {"spotify": "https://open.spotify.com/artist/6S2OmqARrzebs0tKUEyXyp"}, "followers": {"href": null, "total": 21584588}, "genres": ["dance pop", "pop", "post-teen pop"], "href": "https://api.spotify.com/v1/artists/6S2OmqARrzebs0tKUEyXyp", "id": "6S2OmqARrzebs0tKUEyXyp", "images": [{"height": 640, "url": "https://i.scdn.co/image/ab6761610000e5eb99c4e0564b8d23a3d0645af1", "width": 640}, {"height": 320, "url": "https://i.scdn.co/image/ab6761610000517499c4e0564b8d23a3d0645af1", "width": 320}, {"height": 160, "url": "https://i.scdn.co/image/ab6761610000f17899c4e0564b8d23a3d0645af1", "width": 160}], "name": "Demi Lovato", "popularity": 84, "type": "artist", "uri": "spotify:artist:6S2OmqARrzebs0tKUEyXyp"}, {"external_urls": {"spotify": "https://open.spotify.com/artist/3ABivHBm6ULD624ig1lgOg"}, "followers": {"href": null, "total": 67219}, "genres": ["classic turkish pop", "turkish jazz", "turkish modern jazz", "turkish pop"], "href": "https://api.spotify.com/v1/artists/3ABivHBm6ULD624ig1lgOg", "id": "3ABivHBm6ULD624ig1lgOg", "images": [{"height": 640, "url": "https://i.scdn.co/image/ab6761610000e5eb89ae4bace00da08e0242a1f8", "width": 640}, {"height": 320, "url": "https://i.scdn.co/image/ab6761610000517489ae4bace00da08e0242a1f8", "width": 320}, {"height": 160, "url": "https://i.scdn.co/image/ab6761610000f17889ae4bace00da08e0242a1f8", "width": 160}], "name": "Ayten Alpman", "popularity": 50, "type": "artist", "uri": "spotify:artist:3ABivHBm6ULD624ig1lgOg"}, {"external_urls": {"spotify": "https://open.spotify.com/artist/70kkdajctXSbqSMJbQO424"}, "followers": {"href": null, "total": 1087861}, "genres": ["contemporary country", "country dawn", "pop", "texas country"], "href": "https://api.spotify.com/v1/artists/70kkdajctXSbqSMJbQO424", "id": "70kkdajctXSbqSMJbQO424", "images": [{"height": 640, "url": "https://i.scdn.co/image/ab6761610000e5ebd123e4c884d1a5e2edff1895", "width": 640}, {"height": 320, "url": "https://i.scdn.co/image/ab67616100005174d123e4c884d1a5e2edff1895", "width": 320}, {"height": 160, "url": "https://i.scdn.co/image/ab6761610000f178d123e4c884d1a5e2edff1895", "width": 160}], "name": "Kacey Musgraves", "popularity": 77, "type": "artist", "uri": "spotify:artist:70kkdajctXSbqSMJbQO424"}, {"external_urls": {"spotify": "https://open.spotify.com/artist/3Nrfpe0tUJi4K4DXYWgMUX"}, "followers": {"href": null, "total": 45361666}, "genres": ["k-pop", "k-pop boy group"], "href": "https://api.spotify.com/v1/artists/3Nrfpe0tUJi4K4DXYWgMUX", "id": "3Nrfpe0tUJi4K4DXYWgMUX", "images": [{"height": 640, "url": "https://i.scdn.co/image/ab6761610000e5eb82a5d58059f81867b871d8b6", "width": 640}, {"height": 320, "url": "https://i.scdn.co/image/ab6761610000517482a5d58059f81867b871d8b6", "width": 320}, {"height": 160, "url": "https://i.scdn.co/image/ab6761610000f17882a5d58059f81867b871d8b6", "width": 160}], "name": "BTS", "popularity": 96, "type": "artist", "uri": "spotify:artist:3Nrfpe0tUJi4K4DXYWgMUX"}], "total": 37, "limit": 5, "offset": 0, "previous": null, "href": "https://api.spotify.com/v1/me/top/artists?limit=5&offset=0&time_range=short_term", "next": "https://api.spotify.com/v1/me/top/artists?limit=5&offset=5&time_range=short_term"}